\relax 
\providecommand\hyper@newdestlabel[2]{}
\providecommand\BKM@entry[2]{}
\providecommand\HyperFirstAtBeginDocument{\AtBeginDocument}
\HyperFirstAtBeginDocument{\ifx\hyper@anchor\@undefined
\global\let\oldcontentsline\contentsline
\gdef\contentsline#1#2#3#4{\oldcontentsline{#1}{#2}{#3}}
\global\let\oldnewlabel\newlabel
\gdef\newlabel#1#2{\newlabelxx{#1}#2}
\gdef\newlabelxx#1#2#3#4#5#6{\oldnewlabel{#1}{{#2}{#3}}}
\AtEndDocument{\ifx\hyper@anchor\@undefined
\let\contentsline\oldcontentsline
\let\newlabel\oldnewlabel
\fi}
\fi}
\global\let\hyper@last\relax 
\gdef\HyperFirstAtBeginDocument#1{#1}
\providecommand\HyField@AuxAddToFields[1]{}
\providecommand\HyField@AuxAddToCoFields[2]{}
\BKM@entry{id=1,dest={73656374696F6E2E31},srcline={19}}{48696464656E204C617965722053697A65}
\providecommand \oddpage@label [2]{}
\@writefile{toc}{\contentsline {section}{\numberline {1}Hidden Layer Size}{1}{section.1}}
\newlabel{RF1}{5}
\BKM@entry{id=2,dest={73656374696F6E2E32},srcline={118}}{4D6F6D656E74756D205465726D}
\@writefile{toc}{\contentsline {section}{\numberline {2}Momentum Term}{6}{section.2}}
\newlabel{RF2}{11}
\BKM@entry{id=3,dest={73656374696F6E2E33},srcline={235}}{547261696E205365742053697A65}
\@writefile{toc}{\contentsline {section}{\numberline {3}Train Set Size}{12}{section.3}}
\newlabel{RF3}{15}
