PWD /Users/johnkarasev/CLionProjects/cs445_p1/latex
INPUT /usr/local/texlive/2017/texmf.cnf
INPUT /usr/local/texlive/2017/texmf-dist/web2c/texmf.cnf
INPUT /usr/local/texlive/2017/texmf-var/web2c/pdftex/pdflatex.fmt
INPUT p1.tex
OUTPUT build/p1.log
INPUT /usr/local/texlive/2017/texmf-dist/tex/latex/base/article.cls
INPUT /usr/local/texlive/2017/texmf-dist/tex/latex/base/article.cls
INPUT /usr/local/texlive/2017/texmf-dist/tex/latex/base/size10.clo
INPUT /usr/local/texlive/2017/texmf-dist/tex/latex/base/size10.clo
INPUT /usr/local/texlive/2017/texmf-dist/tex/latex/hyperref/hyperref.sty
INPUT /usr/local/texlive/2017/texmf-dist/tex/latex/hyperref/hyperref.sty
INPUT /usr/local/texlive/2017/texmf-dist/tex/generic/oberdiek/hobsub-hyperref.sty
INPUT /usr/local/texlive/2017/texmf-dist/tex/generic/oberdiek/hobsub-hyperref.sty
INPUT /usr/local/texlive/2017/texmf-dist/tex/generic/oberdiek/hobsub-hyperref.sty
INPUT /usr/local/texlive/2017/texmf-dist/tex/generic/oberdiek/hobsub-generic.sty
INPUT /usr/local/texlive/2017/texmf-dist/tex/generic/oberdiek/hobsub-generic.sty
INPUT /usr/local/texlive/2017/texmf-dist/tex/latex/graphics/keyval.sty
INPUT /usr/local/texlive/2017/texmf-dist/tex/latex/graphics/keyval.sty
INPUT /usr/local/texlive/2017/texmf-dist/tex/generic/ifxetex/ifxetex.sty
INPUT /usr/local/texlive/2017/texmf-dist/tex/generic/ifxetex/ifxetex.sty
INPUT /usr/local/texlive/2017/texmf-dist/tex/latex/oberdiek/auxhook.sty
INPUT /usr/local/texlive/2017/texmf-dist/tex/latex/oberdiek/auxhook.sty
INPUT /usr/local/texlive/2017/texmf-dist/tex/latex/oberdiek/kvoptions.sty
INPUT /usr/local/texlive/2017/texmf-dist/tex/latex/oberdiek/kvoptions.sty
INPUT /usr/local/texlive/2017/texmf-dist/tex/latex/hyperref/pd1enc.def
INPUT /usr/local/texlive/2017/texmf-dist/tex/latex/hyperref/pd1enc.def
INPUT /usr/local/texlive/2017/texmf-dist/tex/latex/latexconfig/hyperref.cfg
INPUT /usr/local/texlive/2017/texmf-dist/tex/latex/latexconfig/hyperref.cfg
INPUT /usr/local/texlive/2017/texmf-dist/tex/latex/url/url.sty
INPUT /usr/local/texlive/2017/texmf-dist/tex/latex/url/url.sty
INPUT /usr/local/texlive/2017/texmf-dist/tex/latex/hyperref/hpdftex.def
INPUT /usr/local/texlive/2017/texmf-dist/tex/latex/hyperref/hpdftex.def
INPUT /usr/local/texlive/2017/texmf-dist/tex/latex/oberdiek/rerunfilecheck.sty
INPUT /usr/local/texlive/2017/texmf-dist/tex/latex/oberdiek/rerunfilecheck.sty
INPUT /usr/local/texlive/2017/texmf-dist/tex/latex/forest/forest.sty
INPUT /usr/local/texlive/2017/texmf-dist/tex/latex/forest/forest.sty
INPUT /usr/local/texlive/2017/texmf-dist/tex/latex/pgf/frontendlayer/tikz.sty
INPUT /usr/local/texlive/2017/texmf-dist/tex/latex/pgf/frontendlayer/tikz.sty
INPUT /usr/local/texlive/2017/texmf-dist/tex/latex/pgf/basiclayer/pgf.sty
INPUT /usr/local/texlive/2017/texmf-dist/tex/latex/pgf/basiclayer/pgf.sty
INPUT /usr/local/texlive/2017/texmf-dist/tex/latex/pgf/utilities/pgfrcs.sty
INPUT /usr/local/texlive/2017/texmf-dist/tex/latex/pgf/utilities/pgfrcs.sty
INPUT /usr/local/texlive/2017/texmf-dist/tex/generic/pgf/utilities/pgfutil-common.tex
INPUT /usr/local/texlive/2017/texmf-dist/tex/generic/pgf/utilities/pgfutil-common-lists.tex
INPUT /usr/local/texlive/2017/texmf-dist/tex/generic/pgf/utilities/pgfutil-latex.def
INPUT /usr/local/texlive/2017/texmf-dist/tex/latex/ms/everyshi.sty
INPUT /usr/local/texlive/2017/texmf-dist/tex/latex/ms/everyshi.sty
INPUT /usr/local/texlive/2017/texmf-dist/tex/generic/pgf/utilities/pgfrcs.code.tex
INPUT /usr/local/texlive/2017/texmf-dist/tex/generic/pgf/utilities/pgfrcs.code.tex
INPUT /usr/local/texlive/2017/texmf-dist/tex/latex/pgf/basiclayer/pgfcore.sty
INPUT /usr/local/texlive/2017/texmf-dist/tex/latex/pgf/basiclayer/pgfcore.sty
INPUT /usr/local/texlive/2017/texmf-dist/tex/latex/graphics/graphicx.sty
INPUT /usr/local/texlive/2017/texmf-dist/tex/latex/graphics/graphicx.sty
INPUT /usr/local/texlive/2017/texmf-dist/tex/latex/graphics/graphics.sty
INPUT /usr/local/texlive/2017/texmf-dist/tex/latex/graphics/graphics.sty
INPUT /usr/local/texlive/2017/texmf-dist/tex/latex/graphics/trig.sty
INPUT /usr/local/texlive/2017/texmf-dist/tex/latex/graphics/trig.sty
INPUT /usr/local/texlive/2017/texmf-dist/tex/latex/graphics-cfg/graphics.cfg
INPUT /usr/local/texlive/2017/texmf-dist/tex/latex/graphics-cfg/graphics.cfg
INPUT /usr/local/texlive/2017/texmf-dist/tex/latex/graphics-def/pdftex.def
INPUT /usr/local/texlive/2017/texmf-dist/tex/latex/graphics-def/pdftex.def
INPUT /usr/local/texlive/2017/texmf-dist/tex/latex/pgf/systemlayer/pgfsys.sty
INPUT /usr/local/texlive/2017/texmf-dist/tex/latex/pgf/systemlayer/pgfsys.sty
INPUT /usr/local/texlive/2017/texmf-dist/tex/generic/pgf/systemlayer/pgfsys.code.tex
INPUT /usr/local/texlive/2017/texmf-dist/tex/generic/pgf/systemlayer/pgfsys.code.tex
INPUT /usr/local/texlive/2017/texmf-dist/tex/generic/pgf/utilities/pgfkeys.code.tex
INPUT /usr/local/texlive/2017/texmf-dist/tex/generic/pgf/utilities/pgfkeysfiltered.code.tex
INPUT /usr/local/texlive/2017/texmf-dist/tex/generic/pgf/systemlayer/pgf.cfg
INPUT /usr/local/texlive/2017/texmf-dist/tex/generic/pgf/systemlayer/pgfsys-pdftex.def
INPUT /usr/local/texlive/2017/texmf-dist/tex/generic/pgf/systemlayer/pgfsys-pdftex.def
INPUT /usr/local/texlive/2017/texmf-dist/tex/generic/pgf/systemlayer/pgfsys-common-pdf.def
INPUT /usr/local/texlive/2017/texmf-dist/tex/generic/pgf/systemlayer/pgfsyssoftpath.code.tex
INPUT /usr/local/texlive/2017/texmf-dist/tex/generic/pgf/systemlayer/pgfsyssoftpath.code.tex
INPUT /usr/local/texlive/2017/texmf-dist/tex/generic/pgf/systemlayer/pgfsysprotocol.code.tex
INPUT /usr/local/texlive/2017/texmf-dist/tex/generic/pgf/systemlayer/pgfsysprotocol.code.tex
INPUT /usr/local/texlive/2017/texmf-dist/tex/latex/xcolor/xcolor.sty
INPUT /usr/local/texlive/2017/texmf-dist/tex/latex/xcolor/xcolor.sty
INPUT /usr/local/texlive/2017/texmf-dist/tex/latex/graphics-cfg/color.cfg
INPUT /usr/local/texlive/2017/texmf-dist/tex/latex/graphics-cfg/color.cfg
INPUT /usr/local/texlive/2017/texmf-dist/tex/generic/pgf/basiclayer/pgfcore.code.tex
INPUT /usr/local/texlive/2017/texmf-dist/tex/generic/pgf/basiclayer/pgfcore.code.tex
INPUT /usr/local/texlive/2017/texmf-dist/tex/generic/pgf/math/pgfmath.code.tex
INPUT /usr/local/texlive/2017/texmf-dist/tex/generic/pgf/math/pgfmathcalc.code.tex
INPUT /usr/local/texlive/2017/texmf-dist/tex/generic/pgf/math/pgfmathutil.code.tex
INPUT /usr/local/texlive/2017/texmf-dist/tex/generic/pgf/math/pgfmathparser.code.tex
INPUT /usr/local/texlive/2017/texmf-dist/tex/generic/pgf/math/pgfmathfunctions.code.tex
INPUT /usr/local/texlive/2017/texmf-dist/tex/generic/pgf/math/pgfmathfunctions.basic.code.tex
INPUT /usr/local/texlive/2017/texmf-dist/tex/generic/pgf/math/pgfmathfunctions.trigonometric.code.tex
INPUT /usr/local/texlive/2017/texmf-dist/tex/generic/pgf/math/pgfmathfunctions.random.code.tex
INPUT /usr/local/texlive/2017/texmf-dist/tex/generic/pgf/math/pgfmathfunctions.comparison.code.tex
INPUT /usr/local/texlive/2017/texmf-dist/tex/generic/pgf/math/pgfmathfunctions.base.code.tex
INPUT /usr/local/texlive/2017/texmf-dist/tex/generic/pgf/math/pgfmathfunctions.round.code.tex
INPUT /usr/local/texlive/2017/texmf-dist/tex/generic/pgf/math/pgfmathfunctions.misc.code.tex
INPUT /usr/local/texlive/2017/texmf-dist/tex/generic/pgf/math/pgfmathfunctions.integerarithmetics.code.tex
INPUT /usr/local/texlive/2017/texmf-dist/tex/generic/pgf/math/pgfmathfloat.code.tex
INPUT /usr/local/texlive/2017/texmf-dist/tex/generic/pgf/basiclayer/pgfcorepoints.code.tex
INPUT /usr/local/texlive/2017/texmf-dist/tex/generic/pgf/basiclayer/pgfcorepathconstruct.code.tex
INPUT /usr/local/texlive/2017/texmf-dist/tex/generic/pgf/basiclayer/pgfcorepathusage.code.tex
INPUT /usr/local/texlive/2017/texmf-dist/tex/generic/pgf/basiclayer/pgfcorescopes.code.tex
INPUT /usr/local/texlive/2017/texmf-dist/tex/generic/pgf/basiclayer/pgfcoregraphicstate.code.tex
INPUT /usr/local/texlive/2017/texmf-dist/tex/generic/pgf/basiclayer/pgfcoretransformations.code.tex
INPUT /usr/local/texlive/2017/texmf-dist/tex/generic/pgf/basiclayer/pgfcorequick.code.tex
INPUT /usr/local/texlive/2017/texmf-dist/tex/generic/pgf/basiclayer/pgfcoreobjects.code.tex
INPUT /usr/local/texlive/2017/texmf-dist/tex/generic/pgf/basiclayer/pgfcorepathprocessing.code.tex
INPUT /usr/local/texlive/2017/texmf-dist/tex/generic/pgf/basiclayer/pgfcorearrows.code.tex
INPUT /usr/local/texlive/2017/texmf-dist/tex/generic/pgf/basiclayer/pgfcoreshade.code.tex
INPUT /usr/local/texlive/2017/texmf-dist/tex/generic/pgf/basiclayer/pgfcoreimage.code.tex
INPUT /usr/local/texlive/2017/texmf-dist/tex/generic/pgf/basiclayer/pgfcoreexternal.code.tex
INPUT /usr/local/texlive/2017/texmf-dist/tex/generic/pgf/basiclayer/pgfcorelayers.code.tex
INPUT /usr/local/texlive/2017/texmf-dist/tex/generic/pgf/basiclayer/pgfcoretransparency.code.tex
INPUT /usr/local/texlive/2017/texmf-dist/tex/generic/pgf/basiclayer/pgfcorepatterns.code.tex
INPUT /usr/local/texlive/2017/texmf-dist/tex/generic/pgf/modules/pgfmoduleshapes.code.tex
INPUT /usr/local/texlive/2017/texmf-dist/tex/generic/pgf/modules/pgfmoduleplot.code.tex
INPUT /usr/local/texlive/2017/texmf-dist/tex/latex/pgf/compatibility/pgfcomp-version-0-65.sty
INPUT /usr/local/texlive/2017/texmf-dist/tex/latex/pgf/compatibility/pgfcomp-version-0-65.sty
INPUT /usr/local/texlive/2017/texmf-dist/tex/latex/pgf/compatibility/pgfcomp-version-1-18.sty
INPUT /usr/local/texlive/2017/texmf-dist/tex/latex/pgf/compatibility/pgfcomp-version-1-18.sty
INPUT /usr/local/texlive/2017/texmf-dist/tex/latex/pgf/utilities/pgffor.sty
INPUT /usr/local/texlive/2017/texmf-dist/tex/latex/pgf/utilities/pgffor.sty
INPUT /usr/local/texlive/2017/texmf-dist/tex/latex/pgf/utilities/pgfkeys.sty
INPUT /usr/local/texlive/2017/texmf-dist/tex/latex/pgf/utilities/pgfkeys.sty
INPUT /usr/local/texlive/2017/texmf-dist/tex/generic/pgf/utilities/pgfkeys.code.tex
INPUT /usr/local/texlive/2017/texmf-dist/tex/generic/pgf/utilities/pgfkeys.code.tex
INPUT /usr/local/texlive/2017/texmf-dist/tex/latex/pgf/math/pgfmath.sty
INPUT /usr/local/texlive/2017/texmf-dist/tex/latex/pgf/math/pgfmath.sty
INPUT /usr/local/texlive/2017/texmf-dist/tex/generic/pgf/math/pgfmath.code.tex
INPUT /usr/local/texlive/2017/texmf-dist/tex/generic/pgf/math/pgfmath.code.tex
INPUT /usr/local/texlive/2017/texmf-dist/tex/generic/pgf/utilities/pgffor.code.tex
INPUT /usr/local/texlive/2017/texmf-dist/tex/generic/pgf/utilities/pgffor.code.tex
INPUT /usr/local/texlive/2017/texmf-dist/tex/generic/pgf/math/pgfmath.code.tex
INPUT /usr/local/texlive/2017/texmf-dist/tex/generic/pgf/frontendlayer/tikz/tikz.code.tex
INPUT /usr/local/texlive/2017/texmf-dist/tex/generic/pgf/frontendlayer/tikz/tikz.code.tex
INPUT /usr/local/texlive/2017/texmf-dist/tex/generic/pgf/libraries/pgflibraryplothandlers.code.tex
INPUT /usr/local/texlive/2017/texmf-dist/tex/generic/pgf/libraries/pgflibraryplothandlers.code.tex
INPUT /usr/local/texlive/2017/texmf-dist/tex/generic/pgf/modules/pgfmodulematrix.code.tex
INPUT /usr/local/texlive/2017/texmf-dist/tex/generic/pgf/frontendlayer/tikz/libraries/tikzlibrarytopaths.code.tex
INPUT /usr/local/texlive/2017/texmf-dist/tex/generic/pgf/frontendlayer/tikz/libraries/tikzlibrarytopaths.code.tex
INPUT /usr/local/texlive/2017/texmf-dist/tex/generic/pgf/frontendlayer/tikz/libraries/tikzlibraryshapes.code.tex
INPUT /usr/local/texlive/2017/texmf-dist/tex/generic/pgf/frontendlayer/tikz/libraries/tikzlibraryshapes.code.tex
INPUT /usr/local/texlive/2017/texmf-dist/tex/generic/pgf/frontendlayer/tikz/libraries/tikzlibraryshapes.geometric.code.tex
INPUT /usr/local/texlive/2017/texmf-dist/tex/generic/pgf/frontendlayer/tikz/libraries/tikzlibraryshapes.geometric.code.tex
INPUT /usr/local/texlive/2017/texmf-dist/tex/generic/pgf/libraries/shapes/pgflibraryshapes.geometric.code.tex
INPUT /usr/local/texlive/2017/texmf-dist/tex/generic/pgf/libraries/shapes/pgflibraryshapes.geometric.code.tex
INPUT /usr/local/texlive/2017/texmf-dist/tex/generic/pgf/frontendlayer/tikz/libraries/tikzlibraryshapes.misc.code.tex
INPUT /usr/local/texlive/2017/texmf-dist/tex/generic/pgf/frontendlayer/tikz/libraries/tikzlibraryshapes.misc.code.tex
INPUT /usr/local/texlive/2017/texmf-dist/tex/generic/pgf/libraries/shapes/pgflibraryshapes.misc.code.tex
INPUT /usr/local/texlive/2017/texmf-dist/tex/generic/pgf/libraries/shapes/pgflibraryshapes.misc.code.tex
INPUT /usr/local/texlive/2017/texmf-dist/tex/generic/pgf/frontendlayer/tikz/libraries/tikzlibraryshapes.symbols.code.tex
INPUT /usr/local/texlive/2017/texmf-dist/tex/generic/pgf/frontendlayer/tikz/libraries/tikzlibraryshapes.symbols.code.tex
INPUT /usr/local/texlive/2017/texmf-dist/tex/generic/pgf/libraries/shapes/pgflibraryshapes.symbols.code.tex
INPUT /usr/local/texlive/2017/texmf-dist/tex/generic/pgf/libraries/shapes/pgflibraryshapes.symbols.code.tex
INPUT /usr/local/texlive/2017/texmf-dist/tex/generic/pgf/frontendlayer/tikz/libraries/tikzlibraryshapes.arrows.code.tex
INPUT /usr/local/texlive/2017/texmf-dist/tex/generic/pgf/frontendlayer/tikz/libraries/tikzlibraryshapes.arrows.code.tex
INPUT /usr/local/texlive/2017/texmf-dist/tex/generic/pgf/libraries/shapes/pgflibraryshapes.arrows.code.tex
INPUT /usr/local/texlive/2017/texmf-dist/tex/generic/pgf/libraries/shapes/pgflibraryshapes.arrows.code.tex
INPUT /usr/local/texlive/2017/texmf-dist/tex/generic/pgf/frontendlayer/tikz/libraries/tikzlibraryshapes.callouts.code.tex
INPUT /usr/local/texlive/2017/texmf-dist/tex/generic/pgf/frontendlayer/tikz/libraries/tikzlibraryshapes.callouts.code.tex
INPUT /usr/local/texlive/2017/texmf-dist/tex/generic/pgf/libraries/shapes/pgflibraryshapes.callouts.code.tex
INPUT /usr/local/texlive/2017/texmf-dist/tex/generic/pgf/libraries/shapes/pgflibraryshapes.callouts.code.tex
INPUT /usr/local/texlive/2017/texmf-dist/tex/generic/pgf/frontendlayer/tikz/libraries/tikzlibraryshapes.multipart.code.tex
INPUT /usr/local/texlive/2017/texmf-dist/tex/generic/pgf/frontendlayer/tikz/libraries/tikzlibraryshapes.multipart.code.tex
INPUT /usr/local/texlive/2017/texmf-dist/tex/generic/pgf/libraries/shapes/pgflibraryshapes.multipart.code.tex
INPUT /usr/local/texlive/2017/texmf-dist/tex/generic/pgf/libraries/shapes/pgflibraryshapes.multipart.code.tex
INPUT /usr/local/texlive/2017/texmf-dist/tex/generic/pgf/frontendlayer/tikz/libraries/tikzlibraryfit.code.tex
INPUT /usr/local/texlive/2017/texmf-dist/tex/generic/pgf/frontendlayer/tikz/libraries/tikzlibraryfit.code.tex
INPUT /usr/local/texlive/2017/texmf-dist/tex/generic/pgf/frontendlayer/tikz/libraries/tikzlibrarycalc.code.tex
INPUT /usr/local/texlive/2017/texmf-dist/tex/generic/pgf/frontendlayer/tikz/libraries/tikzlibrarycalc.code.tex
INPUT /usr/local/texlive/2017/texmf-dist/tex/generic/pgf/libraries/pgflibraryintersections.code.tex
INPUT /usr/local/texlive/2017/texmf-dist/tex/generic/pgf/libraries/pgflibraryintersections.code.tex
INPUT /usr/local/texlive/2017/texmf-dist/tex/generic/pgf/libraries/pgflibraryfpu.code.tex
INPUT /usr/local/texlive/2017/texmf-dist/tex/generic/pgf/libraries/pgflibraryfpu.code.tex
INPUT /usr/local/texlive/2017/texmf-dist/tex/latex/pgfopts/pgfopts.sty
INPUT /usr/local/texlive/2017/texmf-dist/tex/latex/pgfopts/pgfopts.sty
INPUT /usr/local/texlive/2017/texmf-dist/tex/latex/etoolbox/etoolbox.sty
INPUT /usr/local/texlive/2017/texmf-dist/tex/latex/etoolbox/etoolbox.sty
INPUT /usr/local/texlive/2017/texmf-dist/tex/latex/elocalloc/elocalloc.sty
INPUT /usr/local/texlive/2017/texmf-dist/tex/latex/elocalloc/elocalloc.sty
INPUT /usr/local/texlive/2017/texmf-dist/tex/latex/environ/environ.sty
INPUT /usr/local/texlive/2017/texmf-dist/tex/latex/environ/environ.sty
INPUT /usr/local/texlive/2017/texmf-dist/tex/latex/trimspaces/trimspaces.sty
INPUT /usr/local/texlive/2017/texmf-dist/tex/latex/trimspaces/trimspaces.sty
INPUT /usr/local/texlive/2017/texmf-dist/tex/latex/l3packages/xparse/xparse.sty
INPUT /usr/local/texlive/2017/texmf-dist/tex/latex/l3packages/xparse/xparse.sty
INPUT /usr/local/texlive/2017/texmf-dist/tex/latex/l3kernel/expl3.sty
INPUT /usr/local/texlive/2017/texmf-dist/tex/latex/l3kernel/expl3.sty
INPUT /usr/local/texlive/2017/texmf-dist/tex/latex/l3kernel/expl3-code.tex
INPUT /usr/local/texlive/2017/texmf-dist/tex/latex/l3kernel/expl3-code.tex
INPUT /usr/local/texlive/2017/texmf-dist/tex/generic/unicode-data/UnicodeData.txt
INPUT /usr/local/texlive/2017/texmf-dist/tex/generic/unicode-data/CaseFolding.txt
INPUT /usr/local/texlive/2017/texmf-dist/tex/generic/unicode-data/SpecialCasing.txt
INPUT /usr/local/texlive/2017/texmf-dist/tex/latex/l3kernel/l3pdfmode.def
INPUT /usr/local/texlive/2017/texmf-dist/tex/latex/l3kernel/l3pdfmode.def
INPUT /usr/local/texlive/2017/texmf-dist/tex/latex/inlinedef/inlinedef.sty
INPUT /usr/local/texlive/2017/texmf-dist/tex/latex/inlinedef/inlinedef.sty
INPUT /usr/local/texlive/2017/texmf-dist/tex/latex/forest/forest-lib-linguistics.sty
INPUT /usr/local/texlive/2017/texmf-dist/tex/latex/forest/forest-lib-linguistics.sty
INPUT /usr/local/texlive/2017/texmf-dist/tex/latex/geometry/geometry.sty
INPUT /usr/local/texlive/2017/texmf-dist/tex/latex/geometry/geometry.sty
INPUT /usr/local/texlive/2017/texmf-dist/tex/latex/adjustbox/adjustbox.sty
INPUT /usr/local/texlive/2017/texmf-dist/tex/latex/adjustbox/adjustbox.sty
INPUT /usr/local/texlive/2017/texmf-dist/tex/latex/xkeyval/xkeyval.sty
INPUT /usr/local/texlive/2017/texmf-dist/tex/latex/xkeyval/xkeyval.sty
INPUT /usr/local/texlive/2017/texmf-dist/tex/generic/xkeyval/xkeyval.tex
INPUT /usr/local/texlive/2017/texmf-dist/tex/generic/xkeyval/xkvutils.tex
INPUT /usr/local/texlive/2017/texmf-dist/tex/latex/adjustbox/adjcalc.sty
INPUT /usr/local/texlive/2017/texmf-dist/tex/latex/adjustbox/adjcalc.sty
INPUT /usr/local/texlive/2017/texmf-dist/tex/latex/adjustbox/trimclip.sty
INPUT /usr/local/texlive/2017/texmf-dist/tex/latex/adjustbox/trimclip.sty
INPUT /usr/local/texlive/2017/texmf-dist/tex/latex/collectbox/collectbox.sty
INPUT /usr/local/texlive/2017/texmf-dist/tex/latex/collectbox/collectbox.sty
INPUT /usr/local/texlive/2017/texmf-dist/tex/latex/adjustbox/tc-pdftex.def
INPUT /usr/local/texlive/2017/texmf-dist/tex/latex/adjustbox/tc-pdftex.def
INPUT /usr/local/texlive/2017/texmf-dist/tex/latex/ifoddpage/ifoddpage.sty
INPUT /usr/local/texlive/2017/texmf-dist/tex/latex/ifoddpage/ifoddpage.sty
INPUT /usr/local/texlive/2017/texmf-dist/tex/latex/ifoddpage/ifoddpage.sty
INPUT /usr/local/texlive/2017/texmf-dist/tex/latex/varwidth/varwidth.sty
INPUT /usr/local/texlive/2017/texmf-dist/tex/latex/varwidth/varwidth.sty
INPUT /usr/local/texlive/2017/texmf-dist/tex/latex/varwidth/varwidth.sty
INPUT /usr/local/texlive/2017/texmf-dist/tex/latex/oberdiek/bookmark.sty
INPUT /usr/local/texlive/2017/texmf-dist/tex/latex/oberdiek/bookmark.sty
INPUT /usr/local/texlive/2017/texmf-dist/tex/latex/oberdiek/bkm-pdftex.def
INPUT /usr/local/texlive/2017/texmf-dist/tex/latex/oberdiek/bkm-pdftex.def
INPUT /usr/local/texlive/2017/texmf-dist/tex/latex/graphics/rotating.sty
INPUT /usr/local/texlive/2017/texmf-dist/tex/latex/graphics/rotating.sty
INPUT /usr/local/texlive/2017/texmf-dist/tex/latex/base/ifthen.sty
INPUT /usr/local/texlive/2017/texmf-dist/tex/latex/base/ifthen.sty
INPUT build/p1.aux
INPUT build/p1.aux
OUTPUT build/p1.aux
INPUT /usr/local/texlive/2017/texmf-dist/tex/latex/hyperref/nameref.sty
INPUT /usr/local/texlive/2017/texmf-dist/tex/latex/hyperref/nameref.sty
INPUT /usr/local/texlive/2017/texmf-dist/tex/generic/oberdiek/gettitlestring.sty
INPUT /usr/local/texlive/2017/texmf-dist/tex/generic/oberdiek/gettitlestring.sty
OUTPUT build/p1.pdf
INPUT /usr/local/texlive/2017/texmf-dist/tex/context/base/mkii/supp-pdf.mkii
INPUT /usr/local/texlive/2017/texmf-dist/tex/context/base/mkii/supp-pdf.mkii
INPUT /usr/local/texlive/2017/texmf-dist/tex/latex/oberdiek/epstopdf-base.sty
INPUT /usr/local/texlive/2017/texmf-dist/tex/latex/oberdiek/epstopdf-base.sty
INPUT /usr/local/texlive/2017/texmf-dist/tex/latex/oberdiek/grfext.sty
INPUT /usr/local/texlive/2017/texmf-dist/tex/latex/oberdiek/grfext.sty
INPUT /usr/local/texlive/2017/texmf-dist/tex/latex/latexconfig/epstopdf-sys.cfg
INPUT /usr/local/texlive/2017/texmf-dist/tex/latex/latexconfig/epstopdf-sys.cfg
INPUT /usr/local/texlive/2017/texmf-dist/fonts/map/fontname/texfonts.map
INPUT /usr/local/texlive/2017/texmf-dist/fonts/tfm/public/cm/cmr17.tfm
INPUT /usr/local/texlive/2017/texmf-dist/fonts/tfm/public/cm/cmr12.tfm
INPUT /usr/local/texlive/2017/texmf-dist/fonts/tfm/public/cm/cmr8.tfm
INPUT /usr/local/texlive/2017/texmf-dist/fonts/tfm/public/cm/cmr6.tfm
INPUT /usr/local/texlive/2017/texmf-dist/fonts/tfm/public/cm/cmmi12.tfm
INPUT /usr/local/texlive/2017/texmf-dist/fonts/tfm/public/cm/cmmi8.tfm
INPUT /usr/local/texlive/2017/texmf-dist/fonts/tfm/public/cm/cmmi6.tfm
INPUT /usr/local/texlive/2017/texmf-dist/fonts/tfm/public/cm/cmsy10.tfm
INPUT /usr/local/texlive/2017/texmf-dist/fonts/tfm/public/cm/cmsy8.tfm
INPUT /usr/local/texlive/2017/texmf-dist/fonts/tfm/public/cm/cmsy6.tfm
INPUT /usr/local/texlive/2017/texmf-dist/fonts/tfm/public/cm/cmr12.tfm
INPUT /usr/local/texlive/2017/texmf-dist/fonts/tfm/public/cm/cmbx12.tfm
INPUT ./charts/n20.pdf
INPUT ./charts/n20.pdf
INPUT ./charts/n20.pdf
INPUT /usr/local/texlive/2017/texmf-var/fonts/map/pdftex/updmap/pdftex.map
INPUT ./charts/n50.pdf
INPUT ./charts/n50.pdf
INPUT ./charts/n50.pdf
INPUT ./charts/n100.pdf
INPUT ./charts/n100.pdf
INPUT ./charts/n100.pdf
INPUT ./charts/na.pdf
INPUT ./charts/na.pdf
INPUT ./charts/na.pdf
INPUT ./charts/nr.pdf
INPUT ./charts/nr.pdf
INPUT ./charts/nr.pdf
INPUT ./charts/a0.pdf
INPUT ./charts/a0.pdf
INPUT ./charts/a0.pdf
INPUT ./charts/a_25.pdf
INPUT ./charts/a_25.pdf
INPUT ./charts/a_25.pdf
INPUT ./charts/a_5.pdf
INPUT ./charts/a_5.pdf
INPUT ./charts/a_5.pdf
INPUT ./charts/a_9.pdf
INPUT ./charts/a_9.pdf
INPUT ./charts/a_9.pdf
INPUT ./charts/aa.pdf
INPUT ./charts/aa.pdf
INPUT ./charts/aa.pdf
INPUT ./charts/ar.pdf
INPUT ./charts/ar.pdf
INPUT ./charts/ar.pdf
INPUT ./charts/sq.pdf
INPUT ./charts/sq.pdf
INPUT ./charts/sq.pdf
INPUT ./charts/sh.pdf
INPUT ./charts/sh.pdf
INPUT ./charts/sh.pdf
INPUT ./charts/ta.pdf
INPUT ./charts/ta.pdf
INPUT ./charts/ta.pdf
INPUT ./charts/tr.pdf
INPUT ./charts/tr.pdf
INPUT ./charts/tr.pdf
INPUT build/p1.aux
INPUT /usr/local/texlive/2017/texmf-dist/fonts/type1/public/amsfonts/cm/cmbx12.pfb
INPUT /usr/local/texlive/2017/texmf-dist/fonts/type1/public/amsfonts/cm/cmmi10.pfb
INPUT /usr/local/texlive/2017/texmf-dist/fonts/type1/public/amsfonts/cm/cmr10.pfb
INPUT /usr/local/texlive/2017/texmf-dist/fonts/type1/public/amsfonts/cm/cmr12.pfb
INPUT /usr/local/texlive/2017/texmf-dist/fonts/type1/public/amsfonts/cm/cmr17.pfb
